{
  "A lightweight multiplatform web browser written in Qt Framework and using its web rendering engine QtWebEngine.": "A lightweight multiplatform web browser written in Qt Framework and using its web rendering engine QtWebEngine.",
  "Are you a downloader? Use Transmission to get new versions of Fedora LXQt Desktop!": "Are you a downloader? Use Transmission to get new versions of Fedora LXQt Desktop!",
  "Download Now": "Download Now",
  "Dragon Player": "Dragon Player",
  "Dragon Player is a multimedia player where the focus is on simplicity, instead of features. Its simple interface is designed not to get in your way and instead empower you to simply play multimedia files.": "Dragon Player is a multimedia player where the focus is on simplicity, instead of features. Its simple interface is designed not to get in your way and instead empower you to simply play multimedia files.",
  "FeatherPad": "FeatherPad",
  "FeatherPad is a desktop indipendent and lightweight Qt5 plain-text editor for Linux.": "FeatherPad is a desktop indipendent and lightweight Qt5 plain-text editor for Linux.",
  "Fedora LXQT Image": "Fedora LXQT Image",
  "Fedora LXQT Spin": "Fedora LXQT Spin",
  "Fedora LXQt provides a lightweight, well-integrated LXQt desktop environment. In addition to LXQt itself it provides a small, well selected collection of applications like the QupZilla browser, which combines Chromium's rendering engine with a nice Qt experience. Other applications include the Trojita mail client, the qBittorrent client, the Yarock music player and a set of some more commonly used applications. As all applications use the same Qt5 toolkit and the Breeze theme known from KDE, the desktop provides a unified and well-integrated style and theming. In addition breeze-gtk is provided to allow the user to integrate GTK applications too.": "Fedora LXQt provides a lightweight, well-integrated LXQt desktop environment. In addition to LXQt itself it provides a small, well selected collection of applications like the QupZilla browser, which combines Chromium's rendering engine with a nice Qt experience. Other applications include the Trojita mail client, the qBittorrent client, the Yarock music player and a set of some more commonly used applications. As all applications use the same Qt5 toolkit and the Breeze theme known from KDE, the desktop provides a unified and well-integrated style and theming. In addition breeze-gtk is provided to allow the user to integrate GTK applications too.",
  "Going Online": "Going Online",
  "LXImage-Qt": "LXImage-Qt",
  "LXImage-Qt is the Qt port of LXImage, a simple and fast image viewer you can also take screenshots with.": "LXImage-Qt is the Qt port of LXImage, a simple and fast image viewer you can also take screenshots with.",
  "Multimedia": "Multimedia",
  "NetworkManager": "NetworkManager",
  "Office & Productivity Suite": "Office & Productivity Suite",
  "QTerminal": "QTerminal",
  "QTerminal is a lightweight Qt terminal emulator based on QTermWidget.": "QTerminal is a lightweight Qt terminal emulator based on QTermWidget.",
  "Quassel": "Quassel",
  "Quassel IRC is a modern, cross-platform, distributed IRC client, meaning that one clients can attach to and detach from a central core": "Quassel IRC is a modern, cross-platform, distributed IRC client, meaning that one clients can attach to and detach from a central core",
  "QupZilla": "QupZilla",
  "Screenshot of Fedora LXQT desktop": "Screenshot of Fedora LXQT desktop",
  "The goal of NetworkManager is to make networking just work with a minimum of user hassle, but still allow customization.": "The goal of NetworkManager is to make networking just work with a minimum of user hassle, but still allow customization.",
  "Transmission": "Transmission",
  "Utilities & Configuration": "Utilities & Configuration",
  "We're so glad you've decided to give Fedora LXQT Spin a try. We know you'll love it.": "We're so glad you've decided to give Fedora LXQT Spin a try. We know you'll love it.",
  "Yarock": "Yarock",
  "Yarock is Qt4/Qt5 Modern Music Player designed to provide an easy and pretty music collection browser based on cover art.": "Yarock is Qt4/Qt5 Modern Music Player designed to provide an easy and pretty music collection browser based on cover art.",
  "dnfdragora": "dnfdragora",
  "dnfdragora is a DNF frontend, based on rpmdragora, written in Python 3 and uses libYui.": "dnfdragora is a DNF frontend, based on rpmdragora, written in Python 3 and uses libYui.",
  "qpdfview": "qpdfview",
  "qpdfview is a tabbed document viewer.": "qpdfview is a tabbed document viewer."
}